$date
    Oct 14, 2015  18:59:53
$end
$version
    TOOL:	ncsim	14.10-s005
$end
$timescale
    10 ps
$end

$scope module top_tb $end
$var reg       1 !    clk  $end
$var reg       1 "    rst  $end
$var reg      32 #    instruction [31:0] $end
$var wire      1 $    alu_overflow  $end
$var integer  32 %    i  $end

$scope module TOP $end
$var wire      1 &    clk  $end
$var wire      1 '    rst  $end
$var wire     32 (    instruction [31:0] $end
$var wire      1 $    alu_overflow  $end
$var wire      1 )    enable_execute  $end
$var wire      1 *    enable_fetch  $end
$var wire      1 +    enable_writeback  $end
$var wire      1 ,    mux2to1_select  $end
$var wire      1 -    imm_reg_select  $end
$var wire      2 .    mux4to1_select [1:0] $end
$var wire      5 /    sub_opcode [4:0] $end
$var wire      5 0    writeback_addr [4:0] $end
$var wire     32 1    data1 [31:0] $end
$var wire     32 2    data2 [31:0] $end
$var wire     32 3    writeback_data [31:0] $end
$var wire     32 4    ExToAlu [31:0] $end
$var wire     32 5    RfToAlu [31:0] $end
$var wire     32 6    alu_result [31:0] $end

$scope module ctrl_unit $end
$var wire      1 &    clk  $end
$var wire      1 '    rst  $end
$var wire     32 (    ir [31:0] $end
$var reg       1 7    enable_execute  $end
$var reg       1 8    enable_writeback  $end
$var reg       1 9    enable_fetch  $end
$var reg       1 :    mux2to1_select  $end
$var reg       1 ;    imm_reg_select  $end
$var reg       5 <    sub_opcode [4:0] $end
$var reg       2 =    mux4to1_select [1:0] $end
$var reg       2 >    current_state [1:0] $end
$var reg       2 ?    next_state [1:0] $end
$var wire      6 @    opcode [5:0] $end
$var parameter  2 A    S0  $end
$var parameter  2 B    S1  $end
$var parameter  2 C    S2  $end
$var parameter  2 D    S3  $end
$upscope $end


$scope module alu $end
$var parameter 32 E    ISize  $end
$var parameter 32 F    OPSize  $end
$var wire      1 )    enable_execute  $end
$var wire     32 1    src1 [31:0] $end
$var wire     32 2    src2 [31:0] $end
$var wire      5 /    OP [4:0] $end
$var reg      32 G    alu_result [31:0] $end
$var reg       1 H    OverFlow  $end
$var reg      64 I    temp [63:0] $end
$var integer  32 J    i  $end
$upscope $end


$scope module regfile1 $end
$var parameter 32 K    ADSize  $end
$var parameter 32 L    REGSize  $end
$var parameter 32 M    DASize  $end
$var wire      1 &    clk  $end
$var wire      1 '    rst  $end
$var wire      5 N    Write_ADDR [4:0] $end
$var wire      5 O    Read_ADDR1 [4:0] $end
$var wire      5 P    Read_ADDR2 [4:0] $end
$var wire     32 3    Write_Data [31:0] $end
$var wire      1 +    Write  $end
$var wire      1 *    Read  $end
$var reg      32 Q    Read_Data1 [31:0] $end
$var reg      32 R    Read_Data2 [31:0] $end
$var integer  32 S    i  $end
$upscope $end


$scope module imm_reg_mux $end
$var parameter 32 T    DSize  $end
$var wire      1 -    select  $end
$var wire     32 5    Write_Data1 [31:0] $end
$var wire     32 4    Write_Data2 [31:0] $end
$var reg      32 U    Output_Data [31:0] $end
$upscope $end


$scope module writeback_mux $end
$var parameter 32 V    DSize  $end
$var wire      1 ,    select  $end
$var wire     32 2    Write_Data1 [31:0] $end
$var wire     32 6    Write_Data2 [31:0] $end
$var reg      32 W    Output_Data [31:0] $end
$upscope $end


$scope module extension_mux $end
$var parameter 32 X    DSize  $end
$var wire      2 .    select [1:0] $end
$var wire     20 Y    Input_data [19:0] $end
$var reg      32 Z    Output_Data [31:0] $end
$upscope $end

$upscope $end

$upscope $end

$enddefinitions $end
$dumpvars
b100000 X
b100000 V
b100000 T
b100000 M
b100000 L
b101 K
b101 F
b100000 E
b11 D
b10 C
b1 B
b0 A
0!
1"
bx #
x$
bx %
0&
1'
bx (
x)
x*
x+
x,
x-
bx .
bx /
bz 0
bx 1
bx 2
bx 3
bx 4
bx 5
bx 6
x7
x8
x9
x:
x;
bx <
bx =
bx >
bx ?
bx @
bx G
xH
bx I
bx J
bx N
bx O
bx P
bx Q
bx R
b100000 S
bx U
bx W
bx Y
bx Z
$end
#500
1!
1&
b0 S
b1 S
b10 S
b11 S
b100 S
b101 S
b110 S
b111 S
b1000 S
b1001 S
b1010 S
b1011 S
b1100 S
b1101 S
b1110 S
b1111 S
b10000 S
b10001 S
b10010 S
b10011 S
b10100 S
b10101 S
b10110 S
b10111 S
b11000 S
b11001 S
b11010 S
b11011 S
b11100 S
b11101 S
b11110 S
b11111 S
b100000 S
b0 >
b1 ?
09
07
08
0:
0;
0-
0,
0+
0)
0*
0H
b0 G
b0 6
0$
#600
0"
0'
#1000
0!
b1000100001000000000000000000111 #
b1000100001000000000000000000111 (
0&
b10 N
b0 O
b0 P
b111 Y
b100010 @
#1500
1!
1&
b1 >
b10 ?
19
1;
b11 =
b1001 <
b1001 /
b11 .
1-
1*
bx G
b111 Z
b111 4
bx 6
b111 U
b111 2
b111 W
b0xxxxxxxxxxxxxxxxxxxxxxxxx G
b0xxxxxxxxxxxxxxxxxxxxxxxxx 6
b111 3
#2000
0!
0&
#2500
1!
1&
b0 Q
b0 R
b10 >
b11 ?
09
17
1)
0*
b0 5
b0 1
b0 G
b0 6
#3000
0!
0&
#3500
1!
1&
b11 >
b0 ?
07
18
1+
0)
#4000
0!
0&
#4500
1!
1&
b0 >
b1 ?
08
0;
0-
0+
b0 U
b0 2
b0 W
b0 3
#5000
b1010000000000000000000000001000 #
0!
0&
b1010000000000000000000000001000 (
b0 N
b1000 Y
b101000 @
b1000 Z
b1000 4
#5500
1!
1&
b1 >
b10 ?
19
1;
b1 =
1:
b0 <
b0 /
1,
b1 .
1-
1*
b1000 U
b1000 2
b1000 G
b1000 6
b1000 W
b1000 3
#6000
0!
0&
#6500
1!
1&
b10 >
b11 ?
09
17
1)
0*
#7000
0!
0&
#7500
1!
1&
b11 >
b0 ?
07
18
1+
0)
#8000
0!
0&
#8500
1!
1&
b0 >
b1 ?
08
0:
0;
0-
0,
0+
b0 U
b0 2
b0 W
b0 G
b0 6
b0 3
#9000
b1010000000100001000000000000010 #
0!
0&
b1010000000100001000000000000010 (
b1 N
b1 O
b1000000000000010 Y
b10 Z
b10 4
#9500
1!
1&
b1 >
b10 ?
19
1;
1:
1,
1-
1*
b10 U
b10 2
b10 G
b10 6
b10 W
b10 3
#10000
0!
0&
#10500
1!
1&
b1000 R
b10 >
b11 ?
09
17
1)
0*
b1000 5
#11000
0!
0&
#11500
1!
1&
b11 >
b0 ?
07
18
1+
0)
#12000
0!
0&
#12500
1!
1&
b0 >
b1 ?
08
0:
0;
0-
0,
0+
b1000 U
b1000 2
b1000 W
b1000 G
b1000 6
b1000 3
#13000
b1000000001100000000010000000001 #
0!
0&
b1000000001100000000010000000001 (
b11 N
b0 O
b1 P
b10000000001 Y
b100000 @
b10000000001 Z
b10000000001 4
#13500
1!
1&
b1 >
b10 ?
19
1:
b1 <
b1 /
1,
1*
b11111111111111111111111111111000 G
b11111111111111111111111111111000 6
b11111111111111111111111111111000 W
b11111111111111111111111111111000 3
#14000
0!
0&
#14500
1!
1&
b1000 Q
b10 R
b10 >
b11 ?
09
17
1)
0*
b10 5
b1000 1
b0 G
b10 U
b10 2
b0 6
b0 W
b110 G
b110 6
b0 3
b110 W
b110 3
#15000
0!
0&
#15500
1!
1&
b11 >
b0 ?
07
18
1+
0)
#16000
0!
0&
#16500
1!
1&
b0 >
b1 ?
08
0:
0,
0+
b10 W
b10 3
#17000
b1000000010000001000100000000000 #
0!
0&
b1000000010000001000100000000000 (
b100 N
b1 O
b10 P
b1000100000000000 Y
b100000000000 Z
b100000000000 4
#17500
1!
1&
b1 >
b10 ?
19
1:
b0 <
b0 /
1,
1*
b1010 G
b110 W
b110 3
b1010 6
b1010 W
b1010 3
#18000
0!
0&
#18500
1!
1&
b10 Q
b111 R
b10 >
b11 ?
09
17
1)
0*
b111 5
b10 1
b100 G
b111 U
b111 2
b100 6
b100 W
b1001 G
b1001 6
b100 3
b1001 W
b1001 3
#19000
0!
0&
#19500
1!
1&
b11 >
b0 ?
07
18
1+
0)
#20000
0!
0&
#20500
1!
1&
b0 >
b1 ?
08
0:
0,
0+
b111 W
b111 3
#21000
b1000000010100001000100000000010 #
0!
0&
b1000000010100001000100000000010 (
b101 N
b1000100000000010 Y
b100000000010 Z
b100000000010 4
#21500
1!
1&
b1 >
b10 ?
19
1:
b10 <
b10 /
1,
1*
b10 G
b1001 W
b1001 3
b10 6
b10 W
b10 3
#22000
0!
0&
#22500
1!
1&
b10 >
b11 ?
09
17
1)
0*
#23000
0!
0&
#23500
1!
1&
b11 >
b0 ?
07
18
1+
0)
#24000
0!
0&
#24500
1!
1&
b0 >
b1 ?
08
0:
0,
0+
b111 W
b111 3
#25000
b1000000011000010001000000000100 #
0!
0&
b1000000011000010001000000000100 (
b110 N
b10 O
b100 P
b10001000000000100 Y
b1000000000100 Z
b1000000000100 4
#25500
1!
1&
b1 >
b10 ?
19
1:
b100 <
b100 /
1,
1*
b111 G
b10 W
b10 3
b111 6
b111 W
b111 3
#26000
0!
0&
#26500
1!
1&
b111 Q
b1001 R
b10 >
b11 ?
09
17
1)
0*
b1001 5
b111 1
b1001 U
b1001 2
b1111 G
b1111 6
b1111 W
b1111 3
#27000
0!
0&
#27500
1!
1&
b11 >
b0 ?
07
18
1+
0)
#28000
0!
0&
#28500
1!
1&
b0 >
b1 ?
08
0:
0,
0+
b1001 W
b1001 3
#29000
b1000000011100011001010000000011 #
0!
0&
b1000000011100011001010000000011 (
b111 N
b11 O
b101 P
b11001010000000011 Y
b1010000000011 Z
b1010000000011 4
#29500
1!
1&
b1 >
b10 ?
19
1:
b11 <
b11 /
1,
1*
b1110 G
b1111 W
b1111 3
b1110 6
b1110 W
b1110 3
#30000
0!
0&
#30500
1!
1&
b110 Q
b10 R
b10 >
b11 ?
09
17
1)
0*
b10 5
b110 1
b1111 G
b10 U
b10 2
b1111 6
b1111 W
b100 G
b100 6
b1111 3
b100 W
b100 3
#31000
0!
0&
#31500
1!
1&
b11 >
b0 ?
07
18
1+
0)
#32000
0!
0&
#32500
1!
1&
b0 >
b1 ?
08
0:
0,
0+
b10 W
b10 3
#33000
b1000000100000100000010000001000 #
0!
0&
b1000000100000100000010000001000 (
b1000 N
b100 O
b1 P
b100000010000001000 Y
b10000001000 Z
b10000001000 4
#33500
1!
1&
b1 >
b10 ?
19
1:
b1000 <
1;
b0 =
b0 .
1-
b1000 /
1,
1*
b1 Z
b10000001000 U
b11000 G
b100 W
b100 3
b11000 6
b10000001000 2
b1 4
b11000 W
b0 G
b1 U
b1 2
b0 6
b11000 3
b0 W
b1100 G
b1100 6
b0 3
b1100 W
b1100 3
#34000
0!
0&
#34500
1!
1&
b1001 Q
b10 >
b11 ?
09
17
1)
0*
b1001 1
b10010 G
b10010 6
b10010 W
b10010 3
#35000
0!
0&
#35500
1!
1&
b11 >
b0 ?
07
18
1+
0)
#36000
0!
0&
#36500
1!
1&
b0 >
b1 ?
08
0:
0;
0-
0,
0+
b10 U
b1 W
b1 3
b10 2
b10 W
b100100 G
b100100 6
b10 3
#37000
b1000000100100001000100000001011 #
0!
0&
b1000000100100001000100000001011 (
b1001 N
b1 O
b10 P
b1000100000001011 Y
b10 Z
b10 4
#37500
1!
1&
b1 >
b10 ?
19
1:
b1011 <
1;
1-
b1011 /
1,
1*
b100100000000000000000000000000001001 I
b10 J
b1001000000000000000000000000000010 I
b1000000000000000000000000000010 G
b100100 W
b100100 3
b1000000000000000000000000000010 6
b1000000000000000000000000000010 W
b1000000000000000000000000000010 3
#38000
0!
0&
#38500
1!
1&
b10 Q
b111 R
b10 >
b11 ?
09
17
1)
0*
b111 5
b10 1
b1000000000000000000000000000000010 I
b10000000000000000000000000000000 I
b10000000000000000000000000000000 G
b10000000000000000000000000000000 6
b10000000000000000000000000000000 W
b10000000000000000000000000000000 3
#39000
0!
0&
#39500
1!
1&
b11 >
b0 ?
07
18
1+
0)
b1000000000000000000000000000000010 I
b10000000000000000000000000000000 I
#40000
0!
0&
#40500
1!
1&
b0 >
b1 ?
08
0:
0;
0-
0,
0+
b111 U
b10 W
b10 3
b111 2
b111 W
b1000000000000000000000000000000010 I
b111 J
b100000000000000000000000000 I
b100000000000000000000000000 G
b100000000000000000000000000 6
b111 3
#41000
b1011000101000000000000000011111 #
0!
0&
b1011000101000000000000000011111 (
b1010 N
b0 O
b0 P
b11111 Y
b101100 @
b0 Z
b0 4
#41500
1!
1&
b1 >
b10 ?
19
1;
b1 =
1:
b100 <
b100 /
1,
b1 .
1-
1*
b111 G
b100000000000000000000000000 W
b11111 Z
b0 U
b0 2
b11111 4
b100000000000000000000000000 3
b111 6
b111 W
b10 G
b11111 U
b11111 2
b10 6
b111 3
b10 W
b11111 G
b11111 6
b10 3
b11111 W
b11111 3
#42000
0!
0&
#42500
1!
1&
b1000 Q
b1000 R
b10 >
b11 ?
09
17
1)
0*
b1000 5
b1000 1
#43000
0!
0&
#43500
1!
1&
b11 >
b0 ?
07
18
1+
0)
#44000
0!
0&
#44500
1!
1&
b0 >
b1 ?
08
0:
0;
0-
0,
0+
b1000 U
b1000 2
b1000 W
b1000 G
b1000 6
b1000 3
#45000
b1010110101100001000000000001010 #
0!
0&
b1010110101100001000000000001010 (
b1011 N
b1 O
b1000000000001010 Y
b101011 @
b1010 Z
b1010 4
#45500
1!
1&
b1 >
b10 ?
19
1;
1:
b11 <
b11 /
1,
1-
1*
b0 G
b1010 U
b1010 2
b0 6
b0 W
b10 G
b10 6
b0 3
b10 W
b10 3
#46000
0!
0&
#46500
1!
1&
b10 Q
b10 >
b11 ?
09
17
1)
0*
b10 1
b1000 G
b1000 6
b1000 W
b1000 3
#47000
0!
0&
#47500
1!
1&
b11 >
b0 ?
07
18
1+
0)
#48000
0!
0&
#48500
1!
1&
b0 >
b1 ?
08
0:
0;
0-
0,
0+
b1000 U
b1010 W
b1010 3
b1000 2
b1000 W
b1010 G
b1010 6
b1000 3
#49000
b1000000110000011000010000001001 #
0!
0&
b1000000110000011000010000001001 (
b1100 N
b11 O
b1 P
b11000010000001001 Y
b100000 @
b10000001001 Z
b10000001001 4
#49500
1!
1&
b1 >
b10 ?
19
1:
b1001 <
1;
b0 =
b0 .
1-
b1001 /
1,
1*
b1 Z
b10000001001 U
b0 G
b1010 W
b1010 3
b0 6
b10000001001 2
b1 4
b0 W
b1 U
b1 2
b0 3
b1 G
b1 6
b1 W
b1 3
#50000
0!
0&
#50500
1!
1&
b110 Q
b10 R
b10 >
b11 ?
09
17
1)
0*
b10 5
b110 1
b11 G
b11 6
b11 W
b11 3
#51000
0!
0&
#51500
1!
1&
b11 >
b0 ?
07
18
1+
0)
#52000
0!
0&
#52500
1!
1&
b0 >
b1 ?
08
0:
0;
0-
0,
0+
b10 U
b1 W
b1 3
b10 2
b10 W
b1 G
b1 6
b10 3
#53000
b0 %
b1 %
b10 %
b11 %
b100 %
b101 %
b110 %
b111 %
b1000 %
b1001 %
b1010 %
b1011 %
b1100 %
b1101 %
b1110 %
b1111 %
b10000 %
b10001 %
b10010 %
b10011 %
b10100 %
b10101 %
b10110 %
b10111 %
b11000 %
b11001 %
b11010 %
b11011 %
b11100 %
b11101 %
b11110 %
b11111 %
b100000 %
0!
0&
#53500
1!
1&
b1 >
b10 ?
19
1:
1;
1-
1,
1*
b1 U
b1 W
b1 3
b1 2
b11 G
b11 6
b11 W
b11 3
#54000
0!
0&
#54500
1!
1&
b10 >
b11 ?
09
17
1)
0*
#55000
0!
0&
#55500
1!
1&
b11 >
b0 ?
07
18
1+
0)
#56000
0!
0&
#56500
1!
1&
b0 >
b1 ?
08
0:
0;
0-
0,
0+
b10 U
b1 W
b1 3
b10 2
b10 W
b1 G
b1 6
b10 3
#57000
0!
0&
#57500
1!
1&
b1 >
b10 ?
19
1:
1;
1-
1,
1*
b1 U
b1 W
b1 3
b1 2
b11 G
b11 6
b11 W
b11 3
#58000
0!
0&
#58500
1!
1&
b10 >
b11 ?
09
17
1)
0*
#59000
0!
0&
#59500
1!
1&
b11 >
b0 ?
07
18
1+
0)
#60000
0!
0&
#60500
1!
1&
b0 >
b1 ?
08
0:
0;
0-
0,
0+
b10 U
b1 W
b1 3
b10 2
b10 W
b1 G
b1 6
b10 3
#61000
0!
0&
#61500
1!
1&
b1 >
b10 ?
19
1:
1;
1-
1,
1*
b1 U
b1 W
b1 3
b1 2
b11 G
b11 6
b11 W
b11 3
#62000
0!
0&
#62500
1!
1&
b10 >
b11 ?
09
17
1)
0*
#63000
